module modernc.org/ccgo/v3

go 1.15

require (
	github.com/dustin/go-humanize v1.0.0
	github.com/kballard/go-shellquote v0.0.0-20180428030007-95032a82bc51
	golang.org/x/sys v0.0.0-20201126233918-771906719818
	golang.org/x/tools v0.0.0-20201124115921-2c860bdd6e78
	modernc.org/cc/v3 v3.32.1-0.20210311183335-856099e752fa
	modernc.org/libc v1.7.13-0.20210308123627-12f642a52bb8
	modernc.org/mathutil v1.2.2
	modernc.org/opt v0.1.1
)
